<svg width="84" height="84" viewBox="0 0 84 84" fill="none" xmlns="http://www.w3.org/2000/svg">
<circle cx="42" cy="42" r="42" fill="#FFF171"/>
<path d="M57 52.5C57 53.2956 56.6839 54.0587 56.1213 54.6213C55.5587 55.1839 54.7956 55.5 54 55.5H30C29.2044 55.5 28.4413 55.1839 27.8787 54.6213C27.3161 54.0587 27 53.2956 27 52.5V31.5C27 30.7044 27.3161 29.9413 27.8787 29.3787C28.4413 28.8161 29.2044 28.5 30 28.5H37.5L40.5 33H54C54.7956 33 55.5587 33.3161 56.1213 33.8787C56.6839 34.4413 57 35.2044 57 36V52.5Z" stroke="#E38901" stroke-width="2" stroke-linecap="round" stroke-linejoin="round"/>
</svg>
